.............
----------------------------------------------------------------------
Ran 13 tests in 0.001s

OK
Name               Stmts   Miss Branch BrPart  Cover   Missing
--------------------------------------------------------------
Diplomacy.py          85      1     48      3    97%   24->25, 25, 43->41, 118->117
TestDiplomacy.py      65      0      6      0   100%
--------------------------------------------------------------
TOTAL                150      1     54      3    98%
